{
  "// name": "Your name. e.g. Jane Doe. Used in the page title, main content, and the footer.",
  "name": "Andrew Chilton",

  "// bgUrl": "Upload an image from pexels.com or unsplash.com somewhere and copy the URL here.",
  "bgUrl": "https://s33.postimg.cc/n9zpsmn9b/pexels-photo-785405.jpg",

  "// social.1": "Choose your fa icons from : https://fontawesome.com/v4.7.0/icons/",
  "// social.2": "Leave off the 'fa' prefix since it will be added for you.",
  "social": [
    {
      "fa" : "home",
      "url" : "https://chilts.org/"
    },
    {
      "fa" : "twitter",
      "url" : "https://twitter.com/andychilton"
    },
    {
      "fa" : "github",
      "url" : "https://github.com/chilts"
    },
    {
      "fa" : "gitlab",
      "url" : "https://gitlab.com/chilts"
    }
  ]

}
